Reproducibly Analysing Visual-World Eyetracking Data - 5 Cluster-permutation analysis
…
5.1.1 Activity: aov_by_bin()

The aov_by_bin() function from {clusterperm} will run that same ANOVA at every bin in the dataset. Try it, plugging in the same formula from above. Save the result as orig_result.

Solution

orig_result <- aov_by_bin(pog_subj, ms,
                          p ~ group * crit + Error(sub_id / crit))

orig_result

# A tibble: 93 × 4
      ms effect        stat      p
   <int> <chr>        <dbl>  <dbl>
 1  -200 group       0.0329 0.857 
 2  -200 crit       -3.44   0.0672
 3  -200 group:crit -2.66   0.107 
 4  -183 group       0.0456 0.831 
 5  -183 crit       -2.18   0.143 
 6  -183 group:crit -0.654  0.421 
 7  -166 group      -0.189  0.665 
 8  -166 crit       -1.11   0.295 
 9  -166 group:crit -0.219  0.641 
10  -150 group      -0.535  0.467 
# … with 83 more rows
…
compare the original test statistic to the distribution of statistics you generated in step 2 to determine how unlikely your original test statistic is under the null hypothesis.

Warning

The logic of permutation tests is appealing, but you can really get into trouble very easily trying to apply it to multilevel data. There is a critical assumption that you need to ensure is honored, which is that all exchanges you make when generating the null-hypothesis distribution are legitimate exchanges under H0. To state this differently, each randomly re-labeled dataset should be one that could have existed had the experiment gone differently, but didn’t.

The functions in {exchangr} are there to help you meet this assumption, but they should not be used without understanding exactly what they do.

Let’s see how easy it is to go wrong when exchanging labels on multilevel data. We decide that we want to randomly re-label adults and children in order to test the effect of group and/or the group-by-crit interaction. Run the count() function on the original data in pog_subj to see what is what.

pog_subj %>%
  count(sub_id, group)

# A tibble: 83 × 3
   sub_id group     n
   <fct>  <fct> <int>
 1 1      adult    62
 2 2      adult    62
 3 3      adult    62
 4 4      adult    62
 5 5      adult    62
 6 6      adult    62
 7 7      adult    62
 8 8      adult    62
 9 9      adult    62
10 10     adult    62
# … with 73 more rows

Each subject was either an adult or a child, and has 62 observations. Now let’s imagine we applied shuffle() without thinking, as an attempt to reattach the labels across subjects

set.seed(62) # so you get the same random result as me

pog_shuffled_bad <- pog_subj %>%
  shuffle(group)

pog_shuffled_bad

# A tibble: 5,146 × 5
   sub_id group crit          ms     p
   <fct>  <fct> <fct>      <int> <dbl>
 1 1      adult competitor  -200 0.2  
 2 1      child competitor  -183 0.333
 3 1      adult competitor  -166 0.467
 4 1      adult competitor  -150 0.5  
 5 1      child competitor  -133 0.467
 6 1      child competitor  -116 0.367
 7 1      adult competitor  -100 0.3  
 8 1      child competitor   -83 0.367
 9 1      adult competitor   -66 0.4  
10 1      child competitor   -50 0.4  
# … with 5,136 more rows

pog_shuffled_bad %>%
  count(sub_id, group)

# A tibble: 166 × 3
   sub_id group     n
   <fct>  <fct> <int>
 1 1      adult    33
 2 1      child    29
 3 2      adult    37
 4 2      child    25
 5 3      adult    28
 6 3      child    34
 7 4      adult    21
 8 4      child    41
 9 5      adult    38
10 5      child    24
# … with 156 more rows

So now we can see the problem: in our re-labeled group, subject 1 is both adult and child! We have violated the exchangeability of the labels under the null hypothesis, creating an impossible dataset, and turning a between-subject factor into a within-subject factor. Any null-hypothesis distribution created from this manner of shuffling will be garbage.

What we need to do is to “nest” the 62 observations into a list-column before we do the shuffling, using the nest() function from {tidyr}. Once we’ve done this, then we can run the shuffle function, and then unnest the data back into it’s original form.

5.2.1 Activity: Build a nest()

Let’s try using the nest() function to create the data below from pog_subj. For guidance, look at the examples in the documentation (type ?nest in the console). Save the result as pog_nest. Then try to unnest() the data.

# A tibble: 83 × 3
   sub_id group data             
   <fct>  <fct> <list>           
 1 1      adult <tibble [62 × 3]>
 2 2      adult <tibble [62 × 3]>
 3 3      adult <tibble [62 × 3]>
 4 4      adult <tibble [62 × 3]>
 5 5      adult <tibble [62 × 3]>
 6 6      adult <tibble [62 × 3]>
 7 7      adult <tibble [62 × 3]>
 8 8      adult <tibble [62 × 3]>
 9 9      adult <tibble [62 × 3]>
10 10     adult <tibble [62 × 3]>
# … with 73 more rows

Solution

pog_nest <- pog_subj %>%
  nest(data = c(-sub_id, -group))

## back to its original format
pog_nest %>%
  unnest(cols = c(data))

# A tibble: 5,146 × 5
   sub_id group crit          ms     p
   <fct>  <fct> <fct>      <int> <dbl>
 1 1      adult competitor  -200 0.2  
 2 1      adult competitor  -183 0.333
 3 1      adult competitor  -166 0.467
 4 1      adult competitor  -150 0.5  
 5 1      adult competitor  -133 0.467
 6 1      adult competitor  -116 0.367
 7 1      adult competitor  -100 0.3  
 8 1      adult competitor   -83 0.367
 9 1      adult competitor   -66 0.4  
10 1      adult competitor   -50 0.4  
# … with 5,136 more rows
…
shuffle_ml <- function(.data) {
  .data %>%
    nest(data = c(-sub_id, -group)) %>%
    shuffle(group) %>%
    unnest(data)
}

Let’s try it out and verify that it works as intended.

pog_subj %>%
  shuffle_ml() %>%
  count(sub_id, group)

# A tibble: 83 × 3
   sub_id group     n
   <fct>  <fct> <int>
 1 1      adult    62
 2 2      child    62
 3 3      adult    62
 4 4      adult    62
 5 5      child    62
 6 6      adult    62
 7 7      adult    62
 8 8      adult    62
 9 9      adult    62
10 10     adult    62
# … with 73 more rows
…
