Reproducibly Analysing Visual-World Eyetracking Data - 3 Plot probabilities
…
── Attaching packages ─────────────────────────────────────── tidyverse 1.3.2 ──
✔ ggplot2 3.3.6      ✔ purrr   0.3.5 
✔ tibble  3.1.8      ✔ dplyr   1.0.10
✔ tidyr   1.2.1      ✔ stringr 1.4.1 
✔ readr   2.1.3      ✔ forcats 0.5.2 
── Conflicts ────────────────────────────────────────── tidyverse_conflicts() ──
✖ dplyr::filter() masks stats::filter()
✖ dplyr::lag()    masks stats::lag()

pog_cts <- read_rds("data-derived/pog_cts.rds")

As usual, the first thing we should do is have a look at our data.

# A tibble: 1,021,288 × 5
   sub_id  t_id   f_c role   pad  
    <int> <int> <int> <fct>  <lgl>
 1      1     1   -90 target FALSE
 2      1     1   -89 target FALSE
 3      1     1   -88 target FALSE
 4      1     1   -87 target FALSE
 5      1     1   -86 target FALSE
 6      1     1   -85 target FALSE
 7      1     1   -84 target FALSE
 8      1     1   -83 target FALSE
 9      1     1   -82 target FALSE
10      1     1   -81 target FALSE
# … with 1,021,278 more rows

The data has sub_id and t_id which identify individual subjects and trials-within-subjects, respectively. But we are missing iformation about what group the subject belongs to (adult or child) and what experimental condition each trial belongs to.

3.1 Merge eye data with information about group and condition

3.1.1 Activity: Get trial condition

The first step is to create trial_cond, which has information about the group that each subject belongs to, the competitor type (existing or novel), and the condition (the identity of the critical object). The information we need is distributed across the subjects, trials, and stimuli tables (see Appendix A). Create trial_cond so that the resulting table matches the format below.

# A tibble: 5,644 × 5
   sub_id group  t_id ctype crit           
    <int> <chr> <int> <chr> <chr>          
 1      1 adult     1 novel competitor-day2
 2      1 adult     2 novel competitor-day1
 3      1 adult     3 exist competitor     
 4      1 adult     4 exist competitor     
 5      1 adult     6 novel untrained      
 6      1 adult     7 novel competitor-day1
 7      1 adult    11 novel untrained      
 8      1 adult    13 novel competitor-day2
 9      1 adult    14 novel untrained      
10      1 adult    16 novel untrained      
# … with 5,634 more rows
…
pets %>%
  count(animal, .drop = FALSE)

# A tibble: 3 × 2
  animal     n
  <fct>  <int>
1 dog        3
2 cat        2
3 ferret     0

# A tibble: 3,620 × 6
   group crit         f_c role         Y     ms
   <chr> <chr>      <int> <fct>    <int>  <dbl>
 1 adult competitor   -90 target      54 -1500 
 2 adult competitor   -90 critical    55 -1500 
 3 adult competitor   -90 existing    55 -1500 
 4 adult competitor   -90 novel       75 -1500 
 5 adult competitor   -90 (blank)    181 -1500 
 6 adult competitor   -89 target      59 -1483.
 7 adult competitor   -89 critical    60 -1483.
 8 adult competitor   -89 existing    58 -1483.
 9 adult competitor   -89 novel       74 -1483.
10 adult competitor   -89 (blank)    169 -1483.
# … with 3,610 more rows
…
