Reproducibly Analysing Visual-World Eyetracking Data - 4 Polynomial regression
…
4  Polynomial regression

For more information about these approaches, see Barr (2008) and Mirman, Dixon, and Magnuson (2008). It is also possible to use Generalized Additive Mixed Models (GAMMs), which can more easily accommodate arbitrary wiggly patterns and asymptotes, but that is beyond the current scope of this textbook.

library("tidyverse")

pog <- read_rds("data-derived/pog_cts.rds")

# A tibble: 1,021,288 × 5
   sub_id  t_id   f_c role   pad  
    <int> <int> <int> <fct>  <lgl>
 1      1     1   -90 target FALSE
 2      1     1   -89 target FALSE
 3      1     1   -88 target FALSE
 4      1     1   -87 target FALSE
 5      1     1   -86 target FALSE
 6      1     1   -85 target FALSE
 7      1     1   -84 target FALSE
 8      1     1   -83 target FALSE
 9      1     1   -82 target FALSE
10      1     1   -81 target FALSE
# … with 1,021,278 more rows
…
      [,1] [,2] [,3] [,4] [,5] [,6] [,7] [,8] [,9] [,10] [,11] [,12] [,13]
frame  -10   -9   -8   -7   -6   -5   -4   -3   -2    -1     0     1     2
bin    -12   -9   -9   -9   -6   -6   -6   -3   -3    -3     0     0     0
      [,14] [,15] [,16] [,17] [,18] [,19] [,20] [,21]
frame     3     4     5     6     7     8     9    10
bin       3     3     3     6     6     6     9     9

Note that in the shifted version, the bin name corresponds to the median frame contained in the bin, whereas in the unshifted version, it corresponds to the first frame in the bin. For instance, bin 0, contains -1, 0, and 1 in the shifted version; in the unshifted version, it contains 0, 1, and 2.

4.1.1 Activity: Calculating bins

Following the above logic, add the variables bin and ms (time in milliseconds for the corresponding bin) to the pog table. Save the result as pog_calc.

# A tibble: 1,021,288 × 7
   sub_id  t_id   f_c role   pad     bin    ms
    <int> <int> <int> <fct>  <lgl> <int> <int>
 1      1     1   -90 target FALSE   -30  -500
 2      1     1   -89 target FALSE   -30  -500
 3      1     1   -88 target FALSE   -29  -483
 4      1     1   -87 target FALSE   -29  -483
 5      1     1   -86 target FALSE   -29  -483
 6      1     1   -85 target FALSE   -28  -466
 7      1     1   -84 target FALSE   -28  -466
 8      1     1   -83 target FALSE   -28  -466
 9      1     1   -82 target FALSE   -27  -450
10      1     1   -81 target FALSE   -27  -450
# … with 1,021,278 more rows

Solution

pog_calc <- pog %>%
  mutate(bin = floor((f_c + 3/2) / 3) %>% as.integer(),
         ms = as.integer(1000 * bin / 60))

4.1.2 Activity: Count frames in bins

For the analysis below, we’re going to focus on the existing competitors (ctype == "exist"). Link the pog_calc data to information about subjects and conditions (crit) to create the following table, where Y is the number of frames observed for the particular combination of sub_id, group, crit, ms, and role. Save the resulting table as pog_subj_y.

# A tibble: 50,630 × 6
   sub_id group crit          ms role         Y
    <int> <chr> <chr>      <int> <fct>    <int>
 1      1 adult competitor  -500 target       6
 2      1 adult competitor  -500 critical     4
 3      1 adult competitor  -500 existing     4
 4      1 adult competitor  -500 novel        6
 5      1 adult competitor  -500 (blank)      0
 6      1 adult competitor  -483 target       7
 7      1 adult competitor  -483 critical     5
 8      1 adult competitor  -483 existing     8
 9      1 adult competitor  -483 novel        8
10      1 adult competitor  -483 (blank)      2
# … with 50,620 more rows
…
pog_subj_y <- pog_calc %>%
  inner_join(subjects, "sub_id") %>%
  inner_join(trials, c("sub_id", "t_id")) %>%
  inner_join(stimuli, c("iv_id")) %>%
  filter(ctype == "exist") %>%
  count(sub_id, group, crit, ms, role,
        name = "Y", .drop = FALSE)

4.1.3 Activity: Compute probabilities

Now add in variables N, the total number of frames for a given combination of sub_id, group, crit, and ms, and p, which is the probability (Y / N). Save the result as pog_subj.

# A tibble: 50,630 × 8
   sub_id group crit          ms role         Y     N      p
    <int> <chr> <chr>      <int> <fct>    <int> <int>  <dbl>
 1      1 adult competitor  -500 target       6    20 0.3   
 2      1 adult competitor  -500 critical     4    20 0.2   
 3      1 adult competitor  -500 existing     4    20 0.2   
 4      1 adult competitor  -500 novel        6    20 0.3   
 5      1 adult competitor  -500 (blank)      0    20 0     
 6      1 adult competitor  -483 target       7    30 0.233 
 7      1 adult competitor  -483 critical     5    30 0.167 
 8      1 adult competitor  -483 existing     8    30 0.267 
 9      1 adult competitor  -483 novel        8    30 0.267 
10      1 adult competitor  -483 (blank)      2    30 0.0667
# … with 50,620 more rows
…
Solution

pog_subj <- pog_subj_y %>%
  group_by(sub_id, group, crit, ms) %>%
  mutate(N = sum(Y),
         p = Y / N) %>%
  ungroup()

4.2 Plot mean probabilities

4.2.1 Activity: Mean probabilities

Let’s now compute the mean probabilities for looks to the critical object across groups (adults, children) and condition (competitor, unrelated). First calculate the table pog_means below, then use it to create the graph below.

# A tibble: 244 × 4
   group crit          ms probability
   <chr> <chr>      <int>       <dbl>
 1 adult competitor  -500       0.137
 2 adult competitor  -483       0.140
 3 adult competitor  -466       0.131
 4 adult competitor  -450       0.129
 5 adult competitor  -433       0.135
 6 adult competitor  -416       0.137
 7 adult competitor  -400       0.135
 8 adult competitor  -383       0.138
 9 adult competitor  -366       0.137
10 adult competitor  -350       0.129
# … with 234 more rows
…
