Analysing Visual-World Eyetracking Data Reproducibly - 2 Mapping gaze to areas of interest
…
We know what pictures were shown on each trial from the data in the screens table (from data-raw/screens.csv).

screens <- read_csv("data-raw/screens.csv",
                    col_types = "iicc")

The table looks like so.

# A tibble: 1,024 × 4
    s_id   loc role     bitmap          
   <int> <int> <chr>    <chr>           
 1     1     3 critical bacon.bmp       
 2     1     4 existing EDsandcastle.bmp
 3     1     2 novel    ND_104.bmp      
 4     1     1 target   baker.bmp       
 5     2     3 critical penny.bmp       
 6     2     4 existing EDsandcastle.bmp
 7     2     2 novel    ND_104.bmp      
 8     2     1 target   baker.bmp       
 9     3     2 critical beetle.bmp      
10     3     4 existing EDcaptain.bmp   
# … with 1,014 more rows
…
x2

horizontal coordinate of bottom-right corner in pixels

y2

vertical coordinate of bottom-right corner in pixels

2.1 Image locations for each trial

2.1.1 Activity: Get coordinates

We want to combine the data from screens and locations with trial info to create the following table, which we will use later to figure out what image was being looked at (if any) on each frame of each trial. Save this information in a table named aoi (for Area Of Interest). You might need to reference Appendix A to see how to get sub_id and t_id into the table.

# A tibble: 22,576 × 8
   sub_id  t_id  s_id role        x1    y1    x2    y2
    <int> <int> <int> <chr>    <int> <int> <int> <int>
 1      1     1   183 critical   704   564  1279  1023
 2      1     1   183 existing     0   564   575  1023
 3      1     1   183 novel        0     0   575   460
 4      1     1   183 target     704     0  1279   460
 5      1     2   194 critical     0   564   575  1023
 6      1     2   194 existing   704     0  1279   460
 7      1     2   194 novel        0     0   575   460
 8      1     2   194 target     704   564  1279  1023
 9      1     3    33 critical   704     0  1279   460
10      1     3    33 existing     0   564   575  1023
# … with 22,566 more rows
…
2.2.1 Activity: Create frames_in

There are different ways to accomplish this task, but an effective strategy is just to join the eyedata (edat) to the aoi table and retain any frames where the x coordinate of the eye gaze is within the x1 and x2 coordinates of the rectangle, and the y coordinate is within the y1 and y2 coordinates. Because our AOIs do not overlap, the gaze can only be within a single AOI at a time.

Name the resulting table frames_in.

Hint

Some code to get you started.

edat %>%
  inner_join(aoi, c("sub_id", "t_id")) # %>%
  ## filter(...) 

# A tibble: 759,311 × 4
   sub_id  t_id   f_c role  
    <int> <int> <int> <chr> 
 1      1     1   -90 target
 2      1     1   -89 target
 3      1     1   -88 target
 4      1     1   -87 target
 5      1     1   -86 target
 6      1     1   -85 target
 7      1     1   -84 target
 8      1     1   -83 target
 9      1     1   -82 target
10      1     1   -81 target
# … with 759,301 more rows
Solution

frames_in <- edat %>%
  inner_join(aoi, c("sub_id", "t_id")) %>%
  filter(x >= x1, x <= x2,
         y >= y1, y <= y2) %>%
  select(sub_id, t_id, f_c, role)

2.2.2 Activity: Create frames_out

Create a table frames_out containing only those frames from edat where the gaze fell outside of any of the four image regions, and label those with the role (blank). Use the anti_join() function from dplyr to do so.

The resulting table should have the format below.

# A tibble: 182,504 × 4
   sub_id  t_id   f_c role   
    <int> <int> <int> <chr>  
 1      1     1   -69 (blank)
 2      1     1   -68 (blank)
 3      1     1   -66 (blank)
 4      1     1   -49 (blank)
 5      1     1    -9 (blank)
 6      1     1    -8 (blank)
 7      1     1    -7 (blank)
 8      1     1    -6 (blank)
 9      1     1    -5 (blank)
10      1     1    -4 (blank)
# … with 182,494 more rows
…
frames_out <- edat %>% 
  select(sub_id, t_id, f_c) %>%
  anti_join(frames_in, c("sub_id", "t_id", "f_c")) %>%
  mutate(role = "(blank)")

A good test to do at this point is to make sure that all 941,815 rows of edat have been assigned to either frames_in or frames_out.

stopifnot( nrow(edat) == (nrow(frames_in) + nrow(frames_out)) ) # TRUE

2.2.3 Activity: Combine into pog

Combine frames_in and frames_out into a single table by concatenating the rows. Sort the rows so by sub_id, t_id, and f_c, and convert role into type factor with levels in this order: target, critical, existing, novel, and (blank). The resulting table should be called pog and have the format below.

# A tibble: 941,815 × 4
   sub_id  t_id   f_c role  
    <int> <int> <int> <fct> 
 1      1     1   -90 target
 2      1     1   -89 target
 3      1     1   -88 target
 4      1     1   -87 target
 5      1     1   -86 target
 6      1     1   -85 target
 7      1     1   -84 target
 8      1     1   -83 target
 9      1     1   -82 target
10      1     1   -81 target
# … with 941,805 more rows
…
## if the value is the same for every trial, there should be
## just one element in this vector
stopifnot( length(start_frame) == 1L )

start_frame

[1] -90

2.3.1 Activity: Selected object

Which object was selected on each trial? The trials table tells us which location was clicked (1, 2, 3, 4) but not which object. We need to figure out which object was clicked by retrieving that information from the screens table. The result should have the format below.

# A tibble: 5,644 × 3
   sub_id  t_id role  
    <int> <int> <chr> 
 1      1     1 target
 2      1     2 target
 3      1     3 target
 4      1     4 target
 5      1     6 target
 6      1     7 target
 7      1    11 target
 8      1    13 target
 9      1    14 target
10      1    16 target
# … with 5,634 more rows
…
## which object was selected on each trial?
selections <- trials %>%
  inner_join(stimuli, "iv_id") %>%
  inner_join(screens, c("s_id", "resploc" = "loc")) %>%
  select(sub_id, t_id, role)

Now that we know what object was selected, we want to pad trials up to the latest frame in the dataset, which we determined during epoching as frame 90 (that is, 1.5 seconds after the disambiguation point).

We will use the crossing() function (from {tidyr}) to create a table with all combinations of the rows from selections with frames f_c from 0 to 90. Then, in the next activity, we will use anti_join() to pull out the combinations that are missing from pog, and use them in padding.

all_frames <- crossing(selections, tibble(f_c = 0:90))

all_frames

# A tibble: 513,604 × 4
   sub_id  t_id role     f_c
    <int> <int> <chr>  <int>
 1      1     1 target     0
 2      1     1 target     1
 3      1     1 target     2
 4      1     1 target     3
 5      1     1 target     4
 6      1     1 target     5
 7      1     1 target     6
 8      1     1 target     7
 9      1     1 target     8
10      1     1 target     9
# … with 513,594 more rows

2.3.2 Activity: Pad frames

Use anti_join() to find out which frames in all_frames are missing from pog. Concatenate these frames onto pog, storing the result in pog_cts. The resulting table should have a variable pad which is FALSE if the frame is an original one, and TRUE if it was added through the padding procedure. Sort the rows of pog_cts by sub_id, t_id, and f_c. The format is shown below.

# A tibble: 1,021,288 × 5
   sub_id  t_id   f_c role   pad  
    <int> <int> <int> <chr>  <lgl>
 1      1     1   -90 target FALSE
 2      1     1   -89 target FALSE
 3      1     1   -88 target FALSE
 4      1     1   -87 target FALSE
 5      1     1   -86 target FALSE
 6      1     1   -85 target FALSE
 7      1     1   -84 target FALSE
 8      1     1   -83 target FALSE
 9      1     1   -82 target FALSE
10      1     1   -81 target FALSE
# … with 1,021,278 more rows
…
